<?xml version="1.0" encoding="utf-8"?>
<!-- Generator: Adobe Illustrator 23.0.2, SVG Export Plug-In . SVG Version: 6.00 Build 0)  -->
<svg version="1.1" id="Capa_1" xmlns="http://www.w3.org/2000/svg" xmlns:xlink="http://www.w3.org/1999/xlink" x="0px" y="0px"
	 viewBox="0 0 2632.9 579.1" style="enable-background:new 0 0 2632.9 579.1;" xml:space="preserve">
<style type="text/css">
	.st0{fill:#D2D3D4;}
	.st1{fill:url(#SVGID_1_);}
	.st2{fill:#AC64A9;}
	.st3{fill:#CF6090;}
	.st4{fill:#8868C6;}
	.st5{fill:#C1C1C1;}
</style>
<g>
	<g>
		<path class="st0" d="M317.7,517.4c-28,0-56.1,0.1-84.1-0.1c-5.1,0-6.8,1.5-6,6.3c0.2,1.5-0.2,3,0.1,4.5
			c2.2,10.4-1.9,17.1-11.6,21.1c-8.6,3.5-15.7,9.8-23.8,14.2c-3.5,1.9-6.5,2.7-10.2,0.3c-11.5-7.1-23.2-13.9-34.9-20.8
			c-1.9-1.1-2.4-2.5-2.4-4.6c0.1-13.6,0.1-27.3,0-40.9c0-3.5,1.7-5.5,4.5-7.1c3.3-1.8,6.2-4.2,9.6-5.6c5.4-2.2,4.8-5.2,2.3-9.4
			c-12.2-20.8-24.3-41.6-36.3-62.4c-12.3-21.3-24.2-42.8-36.7-64c-3.5-5.9-6.7-11.9-10.3-17.8c-1.9-3.1-3.9-4.8-7.4-1.8
			c-1.9,1.6-4.9,2.1-6.7,3.8c-5.2,4.9-9.8,3.7-15.3,0.1c-9.8-6.3-20-12-30.1-17.9c-2.6-1.5-4-3.4-3.9-6.7c0.2-13.5,0.3-26.9,0-40.4
			c-0.1-5.2,3.8-6.3,6.9-8.3c10.9-6.7,22-13.1,32.9-19.8c1.7-1.1,2.4-0.6,3.8,0.3c4,2.6,8.2,5,12.4,7.5c2.8,1.7,4.5,1.7,6.5-1.8
			c16.9-30,34-59.9,51.2-89.8c10.6-18.4,21.3-36.8,32.2-55.1c2.1-3.5,1.9-5.9-1.8-7.7c-0.5-0.2-0.9-0.7-1.4-0.9
			c-11.2-3.3-13.4-11.2-12.5-21.9c0.9-9.6,0.2-19.4,0.1-29.1c0-2.9,0.7-4.8,3.4-6.4c12.2-7.1,24.3-14.2,36.3-21.7
			c2.3-1.4,3.5-0.4,5,0.5c12.1,7.1,24.1,14.4,36.3,21.4c1.9,1.1,2,2.4,2,4.1c0,4.1,0.2,8.2-0.1,12.3c-0.3,4,0.8,5.6,5.2,5.5
			c56.8-0.1,113.7-0.1,170.5,0c3.3,0,5.9-0.5,5-4.5c-2.9-12.4,3.9-19,13.8-24.1c8.2-4.3,16.2-9,24.2-13.7c2.6-1.5,4.6-1.4,7.1,0.2
			c11.3,6.9,22.8,13.7,34.2,20.4c2.6,1.5,3.6,3.3,3.6,6.3c-0.1,13.5-0.1,26.9,0.1,40.4c0,3.1-1.2,4.8-3.8,6.2
			c-3.4,1.9-6.4,4.5-9.9,6c-4.7,2-4.4,4.2-2.1,8.1c10,16.9,18.9,34.5,29.6,50.9c18,27.5,32.8,56.8,50,84.7
			c2.4,3.9,3.5,10.2,7.5,10.9c3.4,0.6,7.9-3.4,11.5-6c4.7-3.4,8.1-3.6,13.3,0c8.9,6.3,18.8,11.3,28.3,16.6c4.6,2.5,7.2,5.4,7,11.2
			c-0.5,12.3-0.3,24.7-0.1,37c0,3.2-1,5.2-3.7,6.8c-11.8,7-23.6,14-35.4,21c-2.2,1.3-4.1,1-6.3-0.3c-3.8-2.4-7.9-4.2-11.4-6.9
			c-3.5-2.7-5.2-1.2-6.8,1.7c-9.2,16.1-18.2,32.2-27.6,48.2c-7.1,11.9-12.9,24.7-20.6,36.1c-13.7,20-24.4,41.8-37.1,62.4
			c-2,3.2-1.2,4.8,1.4,6.3c3,1.8,6,4,9.2,5.2c5.9,2.2,7.4,6.1,7.1,12.1c-0.4,12.3-0.2,24.7-0.1,37c0,2.6-0.4,4.4-3,5.9
			c-12.4,7.1-24.6,14.5-36.8,21.9c-1.3,0.8-2,0.9-3.4,0c-12.4-7.5-24.8-14.9-37.3-22.2c-2.2-1.3-2.6-2.8-2.6-5
			c0.1-5.2-0.2-10.5,0.1-15.7c0.3-4.2-1.1-5.4-5.3-5.3c-27.1,0.2-54.2,0.1-81.3,0.1C320.3,517.4,319,517.4,317.7,517.4z
			 M252.1,408.9c-5.2,6.8-8.9,14.5-13.2,21.9c-10.7,18.4,1.3-1.8-9.5,16.6c-6,10.2-12,20.4-17.9,30.6c-1.4,2.5-1.5,4.7,1.7,5.8
			c11.7,4.2,17,12,14.4,24.6c-0.7,3.6,1.1,4.7,4.7,4.7c57-0.1,114-0.1,170.9,0c4,0,5.7-1.4,4.9-5.2c-2.6-12,3-19.2,13.6-23.5
			c0.2-0.1,0.3-0.3,0.5-0.3c6.4-1.5,4.9-5,2.5-9c-16-27.3-8.9-15.3-24.9-42.6c-4.8-8.1-8.8-16.7-14.6-24.2c1.5-0.8,2.9-1.5,4.4-2.3
			c5.6,9.6,11.2,19.2,16.8,28.8c14.5,24.9,5.4,10.9,20.5,35.4c5.4,8.7,4.8,8.5,13.7,3.3c11.2-6.6,6.8-7.3,17.2-0.4
			c9,5.9,8.9,6,14.6-3.4c0.2-0.3,0.5-0.6,0.7-0.9c12.6-19.3,22.4-40.2,35.4-59.3c9.6-14.1,17.1-29.8,25.7-44.7
			c6.8-11.7,13.6-23.4,20.4-35.1c2.1-3.7,3.1-7.1-2.1-8.8c-11.4-3.7-15.4-11.6-13.2-23c0.9-4.9-1.1-6.3-6.1-6.3
			c-36.6,0.2-28.9,0.1-65.5,0.1c-5.8,0-11.6,0.2-17.3,0.3c0.2-1.5-0.2-3.1,0.7-4.5c20.9-0.1-2.5-0.1,18.4-0.2
			c21.7,0,43.3-0.1,65,0.1c3.5,0,5.1-0.8,4.9-4.6c-0.3-4.3,0.3-8.6-0.2-12.9c-0.5-4.1,1.2-6.8,4.5-8.7c4.9-2.8,9.7-6.1,15.1-8.2
			c-0.8-1.6-2.1-2.9-3.1-4.4c-18.5-30.8-35.3-62.7-54.7-93c-9.8-15.2-18.2-31.3-27-47.1c-5-9-5.2-9.6-14.1-3.3
			c-7,4.9-13.3,7-20.4,0.8c-1.2-1.1-2.8-1.8-4.2-2.8c-3-2-4.8-2-6.9,1.7c-6.6,12-13.6,23.7-20.5,35.5c-0.6,0.9-4,7-15,25.2
			c-3.2,5.3,0,0-3.3,5.8c-0.9,0-3.2,0-3.8-1c3.7-8.7,3.3-6.8,8.1-14.9c16.1-27.5,14.8-25.3,31.1-52.7c2.7-4.5,0.4-5.7-2.8-7.3
			c-14.3-7.3-14.3-7.4-14.3-23.3c0-1.3-0.2-2.6,0-3.9c0.8-5.1-1.1-6.6-6.3-6.6C349,62,296.1,61.8,243.1,61.9c-5,0-11.4-2.2-14.6,1
			c-3.1,3.2-1.4,9.7-0.8,14.6c0.8,6.9-2,10.5-7.8,13.4c-10.6,5.4-10.4,5.6-4.6,15.7c17.9,30.9,12.9,22.4,30.7,53.4
			c1.8,3.1,4,6.1,5.2,10c0,2-2.3,1.6-3.4,2.1c-5.6-10-11.4-19.9-17.3-29.7c-15-25.1-6.5-11.1-21.1-36.4c-3.9-6.7-4.2-7.1-10.6-2.3
			c-7.8,5.8-15.1,8-23,0.7c-1.1-1-2.7-1.3-3.8-2.3c-4.3-3.9-6.5-2.1-9,2.3c-14.8,26.3-29.8,52.4-44.9,78.6
			c-12,20.9-24.2,41.6-36.2,62.5c-4,6.9-3.8,7,3,11.1c2.2,1.3,4.4,2.7,6.7,3.9c4.2,2.3,6.6,5.4,5.9,10.7c-0.5,3.8,0.1,7.8-0.2,11.8
			c-0.3,3.8,1.3,4.7,4.9,4.6c15.5-0.2,31-0.1,46.5-0.1c26.7,0.1,8.9,0.2,35.6,0.2c0.1,1.2,0.2,2.8,0.2,4c-2.6,0.2-5.2,0-7.8,0
			c-39.4,0-34.4,0.1-73.8,0c-3.8,0-6.4,0.6-5.5,5.1c2.5,12.4-2.1,20.6-14.3,24.6c-4.4,1.5-4,4.3-2,7.8
			c16.8,28.7,33.6,57.4,50.2,86.1c10.5,18.1,20.7,36.3,31.1,54.4c6,10.3,6.1,10.2,16.1,3.1c6.6-4.7,8.8-4.9,15-0.8
			c2.5,1.6,5.1,3,7.4,4.9c3.6,3,5.5,1.6,7.5-2c5.3-9.5,10.9-18.9,16.4-28.3c2-3.4,7.9-13.8,23.2-40
			C249.8,406.7,251.3,407.2,252.1,408.9z M149,517.4c0,6,0.1,12,0,17.9c0,2.4,0.5,4.1,2.8,5.5c9.8,5.6,19.7,11.2,29.1,17.4
			c4.3,2.8,7.6,2.8,11.5,0.1c9.2-6.3,18.9-11.7,28.6-17.1c2.3-1.3,3-3.2,3-5.6c0-12.1,0-24.3,0-36.4c0-2.3-0.4-4.3-2.7-5.7
			c-10.5-6.2-21-12.4-31.5-18.7c-2.1-1.2-4-1.4-6.2-0.1c-9.2,5.5-18.3,11.1-27.7,16.3c-5.2,2.9-7.8,6.5-6.9,12.8
			C149.6,508.4,149,512.9,149,517.4z M224,61.8C224,61.8,224,61.8,224,61.8c0-6.2-0.2-12.3,0-18.5c0.1-2.8-1-4.4-3.3-5.8
			c-9.7-5.7-19.3-11.6-29-17.5c-3.3-2-6.3-2.2-9.7,0c-10.1,6.3-20.3,12.3-30.6,18.2c-2.3,1.3-2.4,3-2.4,5.1c0,11.9,0.1,23.9,0,35.8
			c0,3,1,4.6,3.7,6.2c10,5.9,20,11.9,29.8,18.2c2.8,1.8,4.9,1.7,7.6,0.1c9.5-5.7,19.1-11.5,28.8-16.9c4.2-2.3,5.6-5.3,5.3-9.9
			C223.7,71.9,224,66.8,224,61.8z M618,288.5c0-6.2,0-12.3,0-18.5c0-2-0.3-3.5-2.3-4.6c-10.9-6.4-21.7-12.9-32.5-19.4
			c-1.7-1-3.1-1.4-5.1-0.2c-8.4,5.1-16.9,10.1-25.5,14.8c-6.7,3.6-9.7,8.3-9,16.4c0.9,9.8,0.3,19.8,0.2,29.7c0,3.2,1.1,5.1,3.9,6.7
			c10,5.7,19.9,11.5,29.7,17.6c2.5,1.6,4.3,1.3,6.6,0c10-6,20-12,30.1-17.9c2.8-1.6,4.2-3.6,4-7.2C617.7,300.1,618,294.3,618,288.5z
			 M18.9,288.5c0,6,0.2,12-0.1,17.9c-0.1,3.2,1,5.2,3.7,6.8c10,5.7,20,11.4,29.8,17.4c2.6,1.6,4.3,1.7,7,0.1
			c9.8-6,19.8-11.7,29.8-17.4c2.8-1.6,3.8-3.6,3.8-6.7c-0.1-11.8-0.2-23.6,0-35.3c0.1-3.8-1.5-5.7-4.5-7.4
			c-9.6-5.6-19.2-11.1-28.6-17.1c-2.8-1.8-4.8-2-7.6-0.3c-10.1,6.2-20.3,12.2-30.5,18.2c-2.3,1.3-3.3,3-3.2,5.9
			C19.1,276.5,18.9,282.5,18.9,288.5z M486.7,517.9c0-6.4,0-12.7,0-19.1c0-1.9,0.2-3.6-1.9-4.8c-10.7-6.2-21.3-12.6-32-18.9
			c-2.1-1.2-4-1.4-6.2-0.1c-10.3,6.2-20.6,12.5-31.1,18.5c-2.4,1.4-2.9,3-2.9,5.4c0.1,12.3,0,24.7,0,37c0,2.1,0.1,3.8,2.4,5.1
			c10.6,6.1,21.1,12.4,31.6,18.7c2.1,1.3,4,1.2,6.2,0c7.2-4.3,14-9.2,21.6-12.6c10.5-4.7,14.4-12,12.3-23.1
			C486.4,522,486.7,519.9,486.7,517.9z M412.6,62.3c0,6.3,0.1,12.7,0,19c0,2.3,0.7,3.8,2.7,5c10.5,6.2,21,12.4,31.4,18.8
			c2.3,1.4,3.7,1.1,5.9-0.3c10.3-6.5,20.8-12.8,31.4-18.9c2.1-1.2,2.9-2.3,2.9-4.6c-0.1-12.5-0.1-25,0-37.5c0-2.3-0.9-3.9-2.8-5
			c-10.4-6.2-20.9-12.5-31.3-18.8c-2.3-1.4-4.5-1.1-6.8,0.3c-8.3,5.1-16.5,10.6-25.2,14.9c-6.7,3.3-9.1,7.7-8.1,14.8
			C413,54,412.6,58.2,412.6,62.3z"/>
		<linearGradient id="SVGID_1_" gradientUnits="userSpaceOnUse" x1="82.5774" y1="177.7415" x2="621.0939" y2="433.4754">
			<stop  offset="3.140703e-04" style="stop-color:#706BDB"/>
			<stop  offset="6.287173e-03" style="stop-color:#716BDA"/>
			<stop  offset="0.1935" style="stop-color:#9367BF"/>
			<stop  offset="0.3851" style="stop-color:#AD64AB"/>
			<stop  offset="0.5806" style="stop-color:#C0629C"/>
			<stop  offset="0.7823" style="stop-color:#CB6093"/>
			<stop  offset="0.9997" style="stop-color:#CF6090"/>
		</linearGradient>
		<path class="st1" d="M384.3,409c-13.4,6.6-13.4,6.6-20.7-7.3c-6.1-11.7-6.2-11.9-17.5-5.6c-7.2,4-14.3,8.4-20.9,13.2
			c-5.5,4-9.7,3.8-15.3-0.1c-7.5-5.1-15.2-9.9-23.2-14.4c-5.2-3-6.4-1.7-8.6,2.5c-2.6,5.1-6.5,9.6-8.8,14.8c-2.2,4.9-4,5.2-8.1,2.2
			c-2.3-1.7-4.5-4.5-8-3.8c-1.2-2.6-3.5-3.3-6-3.7c-0.3-0.5-0.4-1.1-0.8-1.4c-9.5-8.2-9.5-8.2-2.4-19.1c8.3-12.7,8.2-12.6-4.7-19.9
			c-6.4-3.6-12.5-8-19.2-11.1c-5.2-2.5-6.4-5.9-6.2-11.2c0.3-10.6-0.2-21.3,0.1-31.9c0.2-4.9-1.5-6.4-6.2-6.1
			c-4.7,0.4-9.5-0.3-14.2,0.2c-6.3,0.6-9.5-1.1-8.4-8.1c0.3-2.1-0.4-4.4-0.7-6.6c-0.1-1.8-0.2-3.6-0.4-5.3c0.3-0.5,0.8-0.9,0.9-1.4
			c1.7-14,1.7-14,16.3-13.9c12.6,0.1,12.6,0.1,12.6-12.5c0-8.1,0.3-16.3-0.2-24.4c-0.3-5.4,1.4-8.5,6.3-11.2
			c8.9-4.8,17.3-10.8,26.2-15.7c4.3-2.3,4-4.3,1.9-7.8c-4-6.8-7.7-13.7-11.4-20.4c3.1-3.4,8-3.5,10.4-7.3c1.7-0.6,4.3-0.1,4.3-3.1
			c3-0.6,6.1-0.8,8.5-3c5.2-4.5,8.6-2.6,11.3,3c3,6.1,5,15.3,10.6,16.5c4.7,1,11.7-5.2,16.6-9.4c12.8-11,25-11.9,38-0.4
			c4.5,4,10.2,6.5,15.3,9.7c3.8,2.4,7.1,3.2,9.2-2.1c0.6-1.5,1.7-2.9,2.5-4.3c8.4-14.5,8.4-14.5,22.8-8.8c0.9,1.5,2.3,1.4,3.7,1.3
			c0,4.2,4.1,4.6,6.5,5.6c6,2.5,5.5,6,2.8,10.4c-2.9,4.7-6,9.3-8.9,14c-2,3.2-2,5.7,2,7.8c8.4,4.7,16.4,10.1,24.8,14.6
			c3.8,2,4.8,4.4,4.7,8.4c-0.3,10.9,0.1,21.9-0.2,32.8c-0.1,4.7,1.4,6.7,6.1,6.2c1.1-0.1,2.2-0.1,3.4-0.1c5.6,0,11.7-1.3,16.7,0.5
			c6.5,2.4,0.4,10.2,4,14.6c-1.4,2.1-0.8,4.5-1.1,6.7c-0.3,13.3-0.3,13.3-14,13.3c-15,0-15,0-15,14.7c0,7.3-0.6,14.7,0.2,21.9
			c0.9,7.5-2.9,10.9-8.7,13.9c-7.5,4-14.5,9-22.1,12.7c-4.2,2.1-3.8,3.5-1.7,6.8c2.8,4.4,4.3,9.7,7.5,13.7
			c5.3,6.6,4.5,10.5-3.6,13.1c-0.9,0.3-1.5,1.6-2.3,2.4C388.7,406.7,386.5,407.8,384.3,409z M219.3,289c0,17.4,0,34.8,0,52.2
			c0,3.3-0.3,6.5,3.4,8.7c30.5,17.8,60.9,35.7,91.2,53.9c3.4,2.1,5.1,1.3,8-0.4c29.1-17.5,58.3-35.1,87.7-52.1
			c4.7-2.7,6.4-5.2,6.2-10.3c-0.4-13.7-0.6-27.5-0.6-41.2c0-21,0.4-42,0.5-63.1c0-2.9,0.9-5.9-2.8-8c-9.8-5.6-19.3-11.7-29-17.5
			c-19.7-11.8-39.5-23.2-59-35.3c-5.4-3.4-9.6-3.2-14.9,0.1c-28.3,17.6-56.7,35.1-85.5,51.9c-4.7,2.8-5.4,5.3-5.4,9.7
			C219.3,254.8,219.3,271.9,219.3,289z"/>
		<path class="st2" d="M187.2,548.9c-9.3-3.6-17.3-9.6-25.8-14.6c-1-0.6-1.9-1.8-1.8-3.3c0.4-9.8-0.8-19.7,0.6-29.5
			c9,5.3,18,10.6,27,15.8C187.2,527.9,187.2,538.4,187.2,548.9z"/>
		<path class="st3" d="M187.2,517.4c-9-5.3-18-10.6-27-15.8c7.8-4.9,15.6-9.7,23.4-14.6c2.2-1.4,4.2-1.4,6.7,0.2
			c7.8,5,15.7,9.8,23.6,14.6C204.4,505.9,196.1,512.2,187.2,517.4z"/>
		<path class="st4" d="M187.2,517.4c8.9-5.2,17.2-11.5,26.7-15.6c0.1,9.3,0,18.7,0.3,28c0.1,2.7-1,4.2-3,5.4
			c-8,4.5-15.5,9.9-23.9,13.8C187.2,538.4,187.2,527.9,187.2,517.4z"/>
		<path class="st2" d="M188.4,92.2c-1.2,1.8-2.4,1.1-3.8,0.2c-7.6-4.5-15.1-9.1-22.8-13.4c-1.6-0.9-2.2-2-2.2-3.5
			c0.1-9.9-0.7-19.7,0.4-29.6c9,5.3,18.1,10.6,27.1,15.8c0,7.6-0.1,15.3,0.1,22.9C187.3,87.3,186.2,90.1,188.4,92.2z"/>
		<path class="st3" d="M187.2,61.9c-9-5.3-18.1-10.6-27.1-15.8c8.2-5.2,16.4-10.3,24.6-15.5c1.7-1.1,3.2-0.4,4.6,0.4
			c8.2,5.1,16.5,10.2,24.7,15.3C204.3,50.3,196,56.5,187.2,61.9z"/>
		<path class="st4" d="M187.2,61.9c8.9-5.3,17.2-11.6,26.8-15.6c0.1,9.6,0.1,19.3,0.2,28.9c0,2-0.4,2.9-2.5,4
			c-7.9,4.1-14.9,9.8-23.2,13.1c-2.2-2.2-1.1-4.9-1.2-7.4C187.1,77.2,187.2,69.5,187.2,61.9z"/>
		<path class="st4" d="M606.8,272.7c2.3,2.4,0.7,5.3,1,7.9c0.3,1.8,0.1,3.7,0,5.6c-0.1,6.2,2,13.6-0.8,18.1
			c-3.2,5-10.6,7.5-16.3,10.8c-3.1,1.9-6.5,3.3-9.8,5c0-10.2-0.1-20.4-0.1-30.6c0.9-2,3.1-2.7,4.7-3.7
			C592.6,281.3,599.7,277.1,606.8,272.7z"/>
		<path class="st3" d="M606.8,272.7c-7.1,4.3-14.2,8.6-21.2,13.1c-1.7,1.1-3.8,1.7-4.7,3.7c-7.1-4.5-14.1-8.9-21.2-13.3
			c-1.7-1-3.9-1.4-4.6-3.7c7.6-5.8,16.1-10,24.2-15c0.8-0.5,1.3-1.1,2.3-0.5C590.1,262.2,598.8,266.8,606.8,272.7z"/>
		<path class="st2" d="M555.1,272.5c0.7,2.2,2.9,2.6,4.6,3.7c7.1,4.4,14.2,8.9,21.2,13.3c0,10.2,0.1,20.4,0.1,30.6
			c-9.3-3.6-17.3-9.7-26-14.4c-0.6-0.3-0.9-1.6-0.9-2.5c0-9.8,0-19.6,0.1-29.5C554.2,273.4,554.8,273,555.1,272.5z"/>
		<path class="st2" d="M55.9,320c-9.1-3.9-17.3-9.6-25.9-14.5c-1-0.5-1-1.5-1-2.4c0.1-9.9,0.1-19.8,0.2-29.7c0-0.2,0.5-0.4,0.8-0.7
			c8.4,5.7,17,11.1,25.9,15.9C56.3,299.1,56.6,309.5,55.9,320z"/>
		<path class="st3" d="M56,288.6c-8.9-4.8-17.5-10.2-25.9-15.9c7.9-5.9,16.8-10.4,25.1-15.6c1-0.6,1.5-0.2,2.4,0.3
			c8.2,4.9,16.7,9.3,24.2,15.1c-0.4,1.1-1.2,1.8-2.2,2.4C71.7,279.5,63.9,284.1,56,288.6z"/>
		<path class="st4" d="M56,288.6c7.9-4.6,15.7-9.1,23.6-13.7c1-0.6,1.8-1.3,2.2-2.4c2.3,4.6,0.8,9.4,1,14.1
			c0.2,6.1,1.7,13.3-0.8,18.1c-2.4,4.5-9.3,6.7-14.5,9.4c-3.8,2-6.9,5.4-11.5,5.8C56.6,309.5,56.3,299.1,56,288.6z"/>
		<path class="st2" d="M452.1,547.7c-1,1.2-1.4,2.7-3.8,1.1c-7.1-4.6-14.6-8.5-21.8-12.9c-2.2-1.3-4-3-3.9-6.2
			c0.3-9.3,0.2-18.7,0.3-28c9,5.2,17.9,10.5,26.9,15.7c0.1,6.5-0.1,13.1,0.4,19.6C450.4,540.6,448.3,544.7,452.1,547.7z"/>
		<path class="st3" d="M449.7,517.4c-9-5.2-17.9-10.5-26.9-15.7c8.2-5.1,16.4-10.2,24.6-15.2c1.5-0.9,3.3-1.1,4.8-0.2
			c8.1,5.1,16.2,10.3,24.2,15.4C467.5,507,458.6,512.2,449.7,517.4z"/>
		<path class="st4" d="M449.7,517.4c8.9-5.2,17.8-10.4,26.7-15.6c0.1,9.5,0,19,0.3,28.5c0.1,2.4-0.8,4-2.6,5
			c-7.3,4.2-14.7,8.3-22,12.4c-3.8-3-1.7-7.1-2-10.7C449.6,530.5,449.8,523.9,449.7,517.4z"/>
		<path class="st4" d="M474.4,46c2.4,0.8,2,2.9,2,4.7c0,9-0.1,17.9-0.1,26.9c-0.3,0.4-0.5,0.7-0.8,1.1c-8.6,5.9-17.6,11-26.9,15.7
			c0-10.8,0-21.5,0-32.3c6.3-1.8,11.2-6.2,16.6-9.4C468.5,50.6,472.7,50.1,474.4,46z"/>
		<path class="st3" d="M474.4,46c-1.7,4.1-5.9,4.7-9.1,6.6c-5.5,3.3-10.3,7.7-16.6,9.4c-4.9-2.7-9.8-5.6-14.9-8.2
			c-4-2.1-7-6.1-11.9-6.4c6.3-5.7,14.3-8.6,21.1-13.5c4.4-3.1,7.8-3.3,12.4,0.2C461.3,38.5,468.5,41.2,474.4,46z"/>
		<path class="st2" d="M421.8,47.3c4.9,0.3,7.9,4.4,11.9,6.4c5,2.6,9.9,5.4,14.9,8.2c0,10.8,0,21.5,0,32.3
			c-7.9-4.6-15.8-9.3-23.8-13.8c-2.1-1.2-3.3-2.5-3.2-5.2C421.8,66,421.8,56.6,421.8,47.3z"/>
		<path class="st3" d="M475.5,78.6c0.3-0.4,0.5-0.7,0.8-1.1C476.5,78.2,476.2,78.5,475.5,78.6z"/>
		<path class="st2" d="M248.4,328.2c0-26.6-1.2-53.1,0.6-79.7c22.7,13.8,46.2,26.1,68.1,41.1c0.5,1.6,1.3,3.2,1.3,4.8
			c0.2,25.2,0.2,50.5,0.3,75.7c-6.4,1.2-9.9-4.1-14.4-6.7c-18.5-10.7-36.7-22-55-33C249,329.6,248.7,328.9,248.4,328.2z"/>
		<path class="st3" d="M317.1,289.6c-21.9-15-45.5-27.3-68.1-41.1c8.8-8.6,20.6-12.5,30.6-19.4c10.9-7.5,22.8-13.5,34.1-20.5
			c2.8-1.7,4.8-2.1,7.5-0.4c20.8,12.5,41.6,24.9,62.5,37.2c1.7,1,2.7,1.8,2.3,3.8C363,262.6,340.1,276.1,317.1,289.6z"/>
		<path class="st4" d="M317.1,289.6c23-13.5,45.9-27,68.9-40.5c0.1,25.8,0.2,51.5,0.4,77.3c0,2.7-0.4,4.2-3.2,5.9
			c-21.5,12.5-42.2,26.4-64.4,37.8c-0.1-25.2-0.1-50.5-0.3-75.7C318.4,292.7,317.6,291.1,317.1,289.6z"/>
		<path class="st3" d="M271.6,315.4c0.2,0.5,0.4,0.9,0.7,1.4C272,316.3,271.8,315.9,271.6,315.4z"/>
	</g>
</g>
<g>
	<path class="st5" d="M676.5,102h78.7c27.4,0,47.3,7.4,59.7,22.3c12.4,14.9,18.6,36.7,18.6,65.4c0,25.9-6.7,46-20,60.3
		c-13.3,14.4-32.7,21.5-58,21.5h-34.9v147.7h-44.3V102z M741.2,239.9c13.1,0,23.2-1.4,30.4-4.3c7.2-2.9,12.3-7.8,15.5-14.9
		s4.7-17.2,4.7-30.6c0-16.2-1.2-28.1-3.5-35.7c-2.4-7.6-7-12.9-13.9-16.1c-6.9-3.1-17.8-4.7-32.7-4.7h-20.8v106.2H741.2z"/>
	<path class="st5" d="M880.6,412.5c-9.7-6.7-16.5-16.5-20.4-29.6c-3.9-13.1-5.9-30-5.9-50.9v-51.7c0-31.3,4.9-54.3,14.7-68.8
		s27.2-21.7,52.3-21.7c18.3,0,32.1,3.8,41.3,11.4c9.3,7.6,15.4,18.2,18.4,31.9c3,13.7,4.5,32.2,4.5,55.4v18.4h-89.3v45.4
		c0,13.8,2,23.8,6.1,30c4,6.1,10.5,9.2,19.4,9.2c8.9,0,14.9-3.1,18-9.2c3.1-6.1,4.7-15.5,4.7-28v-13.7h40.7v8.6
		c0,23.8-5.1,41.9-15.3,54.5c-10.2,12.5-26.4,18.8-48.6,18.8C903.9,422.5,890.3,419.2,880.6,412.5z M944.5,284.2v-20.4
		c0-15.4-1.5-26.4-4.5-33.1c-3-6.7-9.3-10-19-10c-6.8,0-11.9,1.6-15.5,4.7c-3.5,3.1-5.9,8.3-7.2,15.5c-1.3,7.2-2,17.6-2,31.1v12.1
		H944.5z"/>
	<path class="st5" d="M1024.8,192.9h41.9V225c7.8-12.8,15.9-21.8,24.1-27c8.2-5.2,16.9-7.8,26.1-7.8c2.4,0,4.6,0.1,6.7,0.4v46.2
		c-8.4-3.1-16.1-4.7-23.1-4.7c-6.8,0-12.9,1.6-18.2,4.9c-5.4,3.3-10.5,8.9-15.5,17v165.3h-41.9V192.9z"/>
	<path class="st5" d="M1157.4,405.2c-11.4-11.5-17.8-26.9-19.4-46.2l34.9-10.6c2.1,14.6,5.7,25.5,10.8,32.5
		c5.1,7.1,12.3,10.6,21.7,10.6c7.3,0,13-2.2,17-6.5c4-4.3,6.1-10.1,6.1-17.4c0-6.5-1.4-12.4-4.3-17.6c-2.9-5.2-7.6-10.6-14.1-16.1
		l-38.8-33.3c-8.9-7.6-15.7-15.6-20.6-24.1c-4.8-8.5-7.2-18.9-7.2-31.1c0-17.5,5.2-31.1,15.7-40.9c10.4-9.8,24.7-14.7,42.7-14.7
		c17.2,0,30.8,5.6,40.5,16.6c9.8,11.1,15.5,25.4,17,42.9l-28.2,10.6c-1.8-12.8-4.8-22.5-9-29.2c-4.2-6.7-10.4-10-18.8-10
		c-6.8,0-12.2,2.2-16.3,6.7c-4.1,4.4-6.1,9.9-6.1,16.5c0,8.4,3.8,15.9,11.4,22.7l40,36.8c10.2,9.4,18.1,18.7,23.7,27.8
		c5.6,9.1,8.4,20.2,8.4,33.3c0,18.8-5.6,33.2-16.8,43.1c-11.2,9.9-26.5,14.9-45.8,14.9C1183.6,422.5,1168.8,416.7,1157.4,405.2z"/>
	<path class="st5" d="M1307.1,401.1c-10.1-14.2-15.1-34.9-15.1-62.1v-65.8c0-27.2,5-47.9,15.1-62.1c10.1-14.2,27.1-21.4,51.1-21.4
		c23.8,0,40.7,7.1,50.7,21.4c10.1,14.2,15.1,34.9,15.1,62.1V339c0,27.2-5,47.9-15.1,62.1c-10.1,14.2-27,21.4-50.7,21.4
		C1334.2,422.5,1317.1,415.4,1307.1,401.1z M1374.6,384.9c3.4-4.4,5.5-9.9,6.3-16.5c0.8-6.5,1.2-15.4,1.2-26.6v-70.9
		c0-11.2-0.4-20.2-1.2-26.8c-0.8-6.7-2.9-12.2-6.3-16.6c-3.4-4.4-8.9-6.7-16.5-6.7c-7.6,0-13.1,2.2-16.6,6.7
		c-3.5,4.4-5.7,10-6.5,16.6c-0.8,6.7-1.2,15.6-1.2,26.8v70.9c0,11.2,0.4,20.1,1.2,26.6c0.8,6.5,2.9,12,6.5,16.5
		c3.5,4.4,9.1,6.7,16.6,6.7C1365.8,391.5,1371.2,389.3,1374.6,384.9z"/>
	<path class="st5" d="M1462.4,192.9h41.9v22.3c18-17,36.4-25.5,55.2-25.5c12.3,0,21,4.4,26.2,13.3c5.2,8.9,7.8,19.9,7.8,32.9v183.3
		h-41.9V248.2c0-8.6-1.3-15-3.9-19.2c-2.6-4.2-7.3-6.3-14.1-6.3c-8.4,0-18.2,4.7-29.4,14.1v182.6h-41.9V192.9z"/>
	<path class="st5" d="M1651.8,415c-6.9-5-12.3-11.5-16.3-19.6c-3.9-8.1-5.9-16.6-5.9-25.5c0-17.8,3.8-32.2,11.4-43.3
		c7.6-11.1,17.2-19.9,29-26.4c11.8-6.5,28.1-14,49-22.3v-16.1c0-14.9-1.5-25.4-4.5-31.5c-3-6.1-9.1-9.2-18.2-9.2
		c-15.9,0-23.9,10.7-23.9,32.1v11.4l-41.5-1.6c0.5-25.1,6.3-43.5,17.2-55.4c11-11.9,27.9-17.8,50.9-17.8c21.7,0,37.4,5.9,47.2,17.8
		c9.8,11.9,14.7,29.8,14.7,53.9v103.4c0,17,1.3,35.1,3.9,54.5h-38.4c-2.9-14.9-4.7-26-5.5-33.3c-3.1,10.2-8.6,18.8-16.3,25.9
		c-7.7,7.1-17.6,10.6-29.6,10.6C1666.5,422.5,1658.7,420,1651.8,415z M1707.6,380c5.2-4.3,9-8.4,11.4-12.3v-64.2
		c-11.2,6.3-19.9,11.7-26.1,16.3c-6.1,4.6-11.2,9.9-15.3,15.9c-4.1,6-6.1,13.2-6.1,21.5c0,9.4,1.7,16.6,5.1,21.7
		c3.4,5.1,8.4,7.6,14.9,7.6C1697.1,386.4,1702.4,384.3,1707.6,380z"/>
	<path class="st5" d="M1805.2,102h41.9v317.3h-41.9V102z"/>
	<path class="st5" d="M1893.7,115.3h41.9v43.9h-41.9V115.3z M1893.7,192.9h41.9v226.4h-41.9V192.9z"/>
	<path class="st5" d="M1972.1,391.1l69.3-166.9h-62.3v-31.3h107.3v22.7l-69.7,172h68.2v31.7h-112.8V391.1z"/>
	<path class="st5" d="M2134,415c-6.9-5-12.3-11.5-16.3-19.6c-3.9-8.1-5.9-16.6-5.9-25.5c0-17.8,3.8-32.2,11.4-43.3
		c7.6-11.1,17.2-19.9,29-26.4c11.8-6.5,28.1-14,49-22.3v-16.1c0-14.9-1.5-25.4-4.5-31.5c-3-6.1-9.1-9.2-18.2-9.2
		c-15.9,0-23.9,10.7-23.9,32.1v11.4l-41.5-1.6c0.5-25.1,6.3-43.5,17.2-55.4c11-11.9,27.9-17.8,50.9-17.8c21.7,0,37.4,5.9,47.2,17.8
		c9.8,11.9,14.7,29.8,14.7,53.9v103.4c0,17,1.3,35.1,3.9,54.5h-38.4c-2.9-14.9-4.7-26-5.5-33.3c-3.1,10.2-8.6,18.8-16.3,25.9
		c-7.7,7.1-17.6,10.6-29.6,10.6C2148.7,422.5,2141,420,2134,415z M2189.9,380c5.2-4.3,9-8.4,11.4-12.3v-64.2
		c-11.2,6.3-19.9,11.7-26.1,16.3c-6.1,4.6-11.2,9.9-15.3,15.9c-4.1,6-6.1,13.2-6.1,21.5c0,9.4,1.7,16.6,5.1,21.7
		c3.4,5.1,8.4,7.6,14.9,7.6C2179.3,386.4,2184.6,384.3,2189.9,380z"/>
	<path class="st5" d="M2292.9,401.1c-9.1-14.2-13.7-37.8-13.7-70.7v-43.9c0-30,4-53.7,11.9-70.9c8-17.2,22.5-25.9,43.7-25.9
		c13.3,0,25.9,5.9,37.6,17.6V102h41.9v317.3h-41.9v-14.5c-11,11.8-23.1,17.6-36.4,17.6C2316.4,422.5,2302,415.4,2292.9,401.1z
		 M2372.4,381V232.5c-9.7-6.5-18.5-9.8-26.6-9.8c-16.5,0-24.7,15.8-24.7,47.4v63.9c0,18.3,1.7,32.1,5.1,41.5
		c3.4,9.4,10.2,14.1,20.4,14.1C2354.9,389.6,2363.5,386.7,2372.4,381z"/>
	<path class="st5" d="M2467.8,401.1c-10.1-14.2-15.1-34.9-15.1-62.1v-65.8c0-27.2,5-47.9,15.1-62.1c10.1-14.2,27.1-21.4,51.1-21.4
		c23.8,0,40.7,7.1,50.7,21.4c10.1,14.2,15.1,34.9,15.1,62.1V339c0,27.2-5,47.9-15.1,62.1c-10.1,14.2-27,21.4-50.7,21.4
		C2494.9,422.5,2477.9,415.4,2467.8,401.1z M2535.4,384.9c3.4-4.4,5.5-9.9,6.3-16.5c0.8-6.5,1.2-15.4,1.2-26.6v-70.9
		c0-11.2-0.4-20.2-1.2-26.8c-0.8-6.7-2.9-12.2-6.3-16.6c-3.4-4.4-8.9-6.7-16.5-6.7c-7.6,0-13.1,2.2-16.6,6.7
		c-3.5,4.4-5.7,10-6.5,16.6c-0.8,6.7-1.2,15.6-1.2,26.8v70.9c0,11.2,0.4,20.1,1.2,26.6c0.8,6.5,2.9,12,6.5,16.5
		c3.5,4.4,9.1,6.7,16.6,6.7C2526.5,391.5,2532,389.3,2535.4,384.9z"/>
</g>
</svg>
